B-Type/processor.vcd
$date
	Mon Oct 16 13:51:06 2023
$end
$version
	QuestaSim Version 2021.1
$end
$timescale
	1ns
$end

$scope module tb_processor $end

$scope module dut $end
$var wire 1 ! clk $end
$var wire 1 " rst $end
$var reg 1 # rf_en $end
$var reg 32 $ pc_out [31:0] $end
$var reg 32 % inst [31:0] $end
$var reg 5 & rd [4:0] $end
$var reg 5 ' rs1 [4:0] $end
$var reg 5 ( rs2 [4:0] $end
$var reg 7 ) opcode [6:0] $end
$var reg 3 * funct3 [2:0] $end
$var reg 7 + funct7 [6:0] $end
$var reg 32 , rdata1 [31:0] $end
$var reg 32 - rdata2 [31:0] $end
$var reg 32 . wdata [31:0] $end
$var reg 4 / aluop [3:0] $end

$scope module pc_i $end
$var wire 1 ! clk $end
$var wire 1 " rst $end
$var wire 1 0 pc_in [31] $end
$var wire 1 1 pc_in [30] $end
$var wire 1 2 pc_in [29] $end
$var wire 1 3 pc_in [28] $end
$var wire 1 4 pc_in [27] $end
$var wire 1 5 pc_in [26] $end
$var wire 1 6 pc_in [25] $end
$var wire 1 7 pc_in [24] $end
$var wire 1 8 pc_in [23] $end
$var wire 1 9 pc_in [22] $end
$var wire 1 : pc_in [21] $end
$var wire 1 ; pc_in [20] $end
$var wire 1 < pc_in [19] $end
$var wire 1 = pc_in [18] $end
$var wire 1 > pc_in [17] $end
$var wire 1 ? pc_in [16] $end
$var wire 1 @ pc_in [15] $end
$var wire 1 A pc_in [14] $end
$var wire 1 B pc_in [13] $end
$var wire 1 C pc_in [12] $end
$var wire 1 D pc_in [11] $end
$var wire 1 E pc_in [10] $end
$var wire 1 F pc_in [9] $end
$var wire 1 G pc_in [8] $end
$var wire 1 H pc_in [7] $end
$var wire 1 I pc_in [6] $end
$var wire 1 J pc_in [5] $end
$var wire 1 K pc_in [4] $end
$var wire 1 L pc_in [3] $end
$var wire 1 M pc_in [2] $end
$var wire 1 N pc_in [1] $end
$var wire 1 O pc_in [0] $end
$var reg 32 P pc_out [31:0] $end
$upscope $end

$scope module inst_mem_i $end
$var wire 1 Q addr [31] $end
$var wire 1 R addr [30] $end
$var wire 1 S addr [29] $end
$var wire 1 T addr [28] $end
$var wire 1 U addr [27] $end
$var wire 1 V addr [26] $end
$var wire 1 W addr [25] $end
$var wire 1 X addr [24] $end
$var wire 1 Y addr [23] $end
$var wire 1 Z addr [22] $end
$var wire 1 [ addr [21] $end
$var wire 1 \ addr [20] $end
$var wire 1 ] addr [19] $end
$var wire 1 ^ addr [18] $end
$var wire 1 _ addr [17] $end
$var wire 1 ` addr [16] $end
$var wire 1 a addr [15] $end
$var wire 1 b addr [14] $end
$var wire 1 c addr [13] $end
$var wire 1 d addr [12] $end
$var wire 1 e addr [11] $end
$var wire 1 f addr [10] $end
$var wire 1 g addr [9] $end
$var wire 1 h addr [8] $end
$var wire 1 i addr [7] $end
$var wire 1 j addr [6] $end
$var wire 1 k addr [5] $end
$var wire 1 l addr [4] $end
$var wire 1 m addr [3] $end
$var wire 1 n addr [2] $end
$var wire 1 o addr [1] $end
$var wire 1 p addr [0] $end
$var reg 32 q data [31:0] $end
$upscope $end

$scope module inst_dec_i $end
$var wire 1 r inst [31] $end
$var wire 1 s inst [30] $end
$var wire 1 t inst [29] $end
$var wire 1 u inst [28] $end
$var wire 1 v inst [27] $end
$var wire 1 w inst [26] $end
$var wire 1 x inst [25] $end
$var wire 1 y inst [24] $end
$var wire 1 z inst [23] $end
$var wire 1 { inst [22] $end
$var wire 1 | inst [21] $end
$var wire 1 } inst [20] $end
$var wire 1 ~ inst [19] $end
$var wire 1 !! inst [18] $end
$var wire 1 "! inst [17] $end
$var wire 1 #! inst [16] $end
$var wire 1 $! inst [15] $end
$var wire 1 %! inst [14] $end
$var wire 1 &! inst [13] $end
$var wire 1 '! inst [12] $end
$var wire 1 (! inst [11] $end
$var wire 1 )! inst [10] $end
$var wire 1 *! inst [9] $end
$var wire 1 +! inst [8] $end
$var wire 1 ,! inst [7] $end
$var wire 1 -! inst [6] $end
$var wire 1 .! inst [5] $end
$var wire 1 /! inst [4] $end
$var wire 1 0! inst [3] $end
$var wire 1 1! inst [2] $end
$var wire 1 2! inst [1] $end
$var wire 1 3! inst [0] $end
$var reg 5 4! rs1 [4:0] $end
$var reg 5 5! rs2 [4:0] $end
$var reg 5 6! rd [4:0] $end
$var reg 7 7! opcode [6:0] $end
$var reg 3 8! funct3 [2:0] $end
$var reg 7 9! funct7 [6:0] $end
$upscope $end

$scope module reg_file_i $end
$var wire 1 ! clk $end
$var wire 1 :! rf_en $end
$var wire 1 ;! rs1 [4] $end
$var wire 1 <! rs1 [3] $end
$var wire 1 =! rs1 [2] $end
$var wire 1 >! rs1 [1] $end
$var wire 1 ?! rs1 [0] $end
$var wire 1 @! rs2 [4] $end
$var wire 1 A! rs2 [3] $end
$var wire 1 B! rs2 [2] $end
$var wire 1 C! rs2 [1] $end
$var wire 1 D! rs2 [0] $end
$var wire 1 E! rd [4] $end
$var wire 1 F! rd [3] $end
$var wire 1 G! rd [2] $end
$var wire 1 H! rd [1] $end
$var wire 1 I! rd [0] $end
$var wire 1 J! wdata [31] $end
$var wire 1 K! wdata [30] $end
$var wire 1 L! wdata [29] $end
$var wire 1 M! wdata [28] $end
$var wire 1 N! wdata [27] $end
$var wire 1 O! wdata [26] $end
$var wire 1 P! wdata [25] $end
$var wire 1 Q! wdata [24] $end
$var wire 1 R! wdata [23] $end
$var wire 1 S! wdata [22] $end
$var wire 1 T! wdata [21] $end
$var wire 1 U! wdata [20] $end
$var wire 1 V! wdata [19] $end
$var wire 1 W! wdata [18] $end
$var wire 1 X! wdata [17] $end
$var wire 1 Y! wdata [16] $end
$var wire 1 Z! wdata [15] $end
$var wire 1 [! wdata [14] $end
$var wire 1 \! wdata [13] $end
$var wire 1 ]! wdata [12] $end
$var wire 1 ^! wdata [11] $end
$var wire 1 _! wdata [10] $end
$var wire 1 `! wdata [9] $end
$var wire 1 a! wdata [8] $end
$var wire 1 b! wdata [7] $end
$var wire 1 c! wdata [6] $end
$var wire 1 d! wdata [5] $end
$var wire 1 e! wdata [4] $end
$var wire 1 f! wdata [3] $end
$var wire 1 g! wdata [2] $end
$var wire 1 h! wdata [1] $end
$var wire 1 i! wdata [0] $end
$var reg 32 j! rdata1 [31:0] $end
$var reg 32 k! rdata2 [31:0] $end
$upscope $end

$scope module controller_i $end
$var wire 1 l! opcode [6] $end
$var wire 1 m! opcode [5] $end
$var wire 1 n! opcode [4] $end
$var wire 1 o! opcode [3] $end
$var wire 1 p! opcode [2] $end
$var wire 1 q! opcode [1] $end
$var wire 1 r! opcode [0] $end
$var wire 1 s! funct7 [6] $end
$var wire 1 t! funct7 [5] $end
$var wire 1 u! funct7 [4] $end
$var wire 1 v! funct7 [3] $end
$var wire 1 w! funct7 [2] $end
$var wire 1 x! funct7 [1] $end
$var wire 1 y! funct7 [0] $end
$var wire 1 z! funct3 [2] $end
$var wire 1 {! funct3 [1] $end
$var wire 1 |! funct3 [0] $end
$var reg 4 }! aluop [3:0] $end
$var reg 1 ~! rf_en $end
$upscope $end

$scope module alu_i $end
$var wire 1 !" aluop [3] $end
$var wire 1 "" aluop [2] $end
$var wire 1 #" aluop [1] $end
$var wire 1 $" aluop [0] $end
$var wire 1 %" opr_a [31] $end
$var wire 1 &" opr_a [30] $end
$var wire 1 '" opr_a [29] $end
$var wire 1 (" opr_a [28] $end
$var wire 1 )" opr_a [27] $end
$var wire 1 *" opr_a [26] $end
$var wire 1 +" opr_a [25] $end
$var wire 1 ," opr_a [24] $end
$var wire 1 -" opr_a [23] $end
$var wire 1 ." opr_a [22] $end
$var wire 1 /" opr_a [21] $end
$var wire 1 0" opr_a [20] $end
$var wire 1 1" opr_a [19] $end
$var wire 1 2" opr_a [18] $end
$var wire 1 3" opr_a [17] $end
$var wire 1 4" opr_a [16] $end
$var wire 1 5" opr_a [15] $end
$var wire 1 6" opr_a [14] $end
$var wire 1 7" opr_a [13] $end
$var wire 1 8" opr_a [12] $end
$var wire 1 9" opr_a [11] $end
$var wire 1 :" opr_a [10] $end
$var wire 1 ;" opr_a [9] $end
$var wire 1 <" opr_a [8] $end
$var wire 1 =" opr_a [7] $end
$var wire 1 >" opr_a [6] $end
$var wire 1 ?" opr_a [5] $end
$var wire 1 @" opr_a [4] $end
$var wire 1 A" opr_a [3] $end
$var wire 1 B" opr_a [2] $end
$var wire 1 C" opr_a [1] $end
$var wire 1 D" opr_a [0] $end
$var wire 1 E" opr_b [31] $end
$var wire 1 F" opr_b [30] $end
$var wire 1 G" opr_b [29] $end
$var wire 1 H" opr_b [28] $end
$var wire 1 I" opr_b [27] $end
$var wire 1 J" opr_b [26] $end
$var wire 1 K" opr_b [25] $end
$var wire 1 L" opr_b [24] $end
$var wire 1 M" opr_b [23] $end
$var wire 1 N" opr_b [22] $end
$var wire 1 O" opr_b [21] $end
$var wire 1 P" opr_b [20] $end
$var wire 1 Q" opr_b [19] $end
$var wire 1 R" opr_b [18] $end
$var wire 1 S" opr_b [17] $end
$var wire 1 T" opr_b [16] $end
$var wire 1 U" opr_b [15] $end
$var wire 1 V" opr_b [14] $end
$var wire 1 W" opr_b [13] $end
$var wire 1 X" opr_b [12] $end
$var wire 1 Y" opr_b [11] $end
$var wire 1 Z" opr_b [10] $end
$var wire 1 [" opr_b [9] $end
$var wire 1 \" opr_b [8] $end
$var wire 1 ]" opr_b [7] $end
$var wire 1 ^" opr_b [6] $end
$var wire 1 _" opr_b [5] $end
$var wire 1 `" opr_b [4] $end
$var wire 1 a" opr_b [3] $end
$var wire 1 b" opr_b [2] $end
$var wire 1 c" opr_b [1] $end
$var wire 1 d" opr_b [0] $end
$var reg 32 e" opr_res [31:0] $end
$upscope $end
$upscope $end
$upscope $end
$enddefinitions $end
#0
$dumpvars
0#
bx $
bx %
bx &
bx '
bx (
bx )
bx *
bx +
bx ,
bx -
bx .
bx /
bx P
bx q
bx 4!
bx 5!
bx 6!
bx 7!
bx 8!
bx 9!
bx j!
bx k!
bx }!
0~!
bx e"
1"
0!
xd"
xc"
xb"
xa"
x`"
x_"
x^"
x]"
x\"
x["
xZ"
xY"
xX"
xW"
xV"
xU"
xT"
xS"
xR"
xQ"
xP"
xO"
xN"
xM"
xL"
xK"
xJ"
xI"
xH"
xG"
xF"
xE"
xD"
xC"
xB"
xA"
x@"
x?"
x>"
x="
x<"
x;"
x:"
x9"
x8"
x7"
x6"
x5"
x4"
x3"
x2"
x1"
x0"
x/"
x."
x-"
x,"
x+"
x*"
x)"
x("
x'"
x&"
x%"
x$"
x#"
x""
x!"
x|!
x{!
xz!
xy!
xx!
xw!
xv!
xu!
xt!
xs!
xr!
xq!
xp!
xo!
xn!
xm!
xl!
xi!
xh!
xg!
xf!
xe!
xd!
xc!
xb!
xa!
x`!
x_!
x^!
x]!
x\!
x[!
xZ!
xY!
xX!
xW!
xV!
xU!
xT!
xS!
xR!
xQ!
xP!
xO!
xN!
xM!
xL!
xK!
xJ!
xI!
xH!
xG!
xF!
xE!
xD!
xC!
xB!
xA!
x@!
x?!
x>!
x=!
x<!
x;!
0:!
x3!
x2!
x1!
x0!
x/!
x.!
x-!
x,!
x+!
x*!
x)!
x(!
x'!
x&!
x%!
x$!
x#!
x"!
x!!
x~
x}
x|
x{
xz
xy
xx
xw
xv
xu
xt
xs
xr
xp
xo
xn
xm
xl
xk
xj
xi
xh
xg
xf
xe
xd
xc
xb
xa
x`
x_
x^
x]
x\
x[
xZ
xY
xX
xW
xV
xU
xT
xS
xR
xQ
xO
xN
xM
xL
xK
xJ
xI
xH
xG
xF
xE
xD
xC
xB
xA
x@
x?
x>
x=
x<
x;
x:
x9
x8
x7
x6
x5
x4
x3
x2
x1
x0
$end
#5
1!
b0 P
b0 $
0p
0o
0n
0m
0l
0k
0j
0i
0h
0g
0f
0e
0d
0c
0b
0a
0`
0_
0^
0]
0\
0[
0Z
0Y
0X
0W
0V
0U
0T
0S
0R
0Q
0O
0N
1M
0L
0K
0J
0I
0H
0G
0F
0E
0D
0C
0B
0A
0@
0?
0>
0=
0<
0;
0:
09
08
07
06
05
04
03
02
01
00
b1000100000000110110011 q
b1000100000000110110011 %
13!
12!
01!
00!
1/!
1.!
0-!
1,!
1+!
0*!
0)!
0(!
0'!
0&!
0%!
0$!
0#!
1"!
0!!
0~
0}
1|
0{
0z
0y
0x
0w
0v
0u
0t
0s
0r
b11 6!
b100 4!
b10 5!
b110011 7!
b0 8!
b0 9!
b0 +
b0 *
b110011 )
b10 (
b100 '
b11 &
1I!
1H!
0G!
0F!
0E!
0?!
0>!
1=!
0<!
0;!
0D!
1C!
0B!
0A!
0@!
1r!
1q!
0p!
0o!
1n!
1m!
0l!
0|!
0{!
0z!
0y!
0x!
0w!
0v!
0u!
0t!
0s!
1~!
b0 }!
b101 j!
b111 k!
b111 -
b101 ,
b0 /
1#
1:!
0$"
0#"
0""
0!"
1D"
0C"
1B"
0A"
0@"
0?"
0>"
0="
0<"
0;"
0:"
09"
08"
07"
06"
05"
04"
03"
02"
01"
00"
0/"
0."
0-"
0,"
0+"
0*"
0)"
0("
0'"
0&"
0%"
1d"
1c"
1b"
0a"
0`"
0_"
0^"
0]"
0\"
0["
0Z"
0Y"
0X"
0W"
0V"
0U"
0T"
0S"
0R"
0Q"
0P"
0O"
0N"
0M"
0L"
0K"
0J"
0I"
0H"
0G"
0F"
0E"
b1100 e"
b1100 .
0i!
0h!
1g!
1f!
0e!
0d!
0c!
0b!
0a!
0`!
0_!
0^!
0]!
0\!
0[!
0Z!
0Y!
0X!
0W!
0V!
0U!
0T!
0S!
0R!
0Q!
0P!
0O!
0N!
0M!
0L!
0K!
0J!
#10
0"
0!
#15
1!
b100 P
b100 $
1n
0M
1L
bx q
bx %
x3!
x2!
x1!
x0!
x/!
x.!
x-!
x,!
x+!
x*!
x)!
x(!
x'!
x&!
x%!
x$!
x#!
x"!
x!!
x~
x}
x|
x{
xz
xy
xx
xw
xv
xu
xt
xs
xr
bx 6!
bx 4!
bx 5!
bx 7!
bx 8!
bx 9!
bx +
bx *
bx )
bx (
bx '
bx &
xI!
xH!
xG!
xF!
xE!
x?!
x>!
x=!
x<!
x;!
xD!
xC!
xB!
xA!
x@!
xr!
xq!
xp!
xo!
xn!
xm!
xl!
x|!
x{!
xz!
xy!
xx!
xw!
xv!
xu!
xt!
xs!
0~!
bx j!
bx k!
bx -
bx ,
0#
0:!
xD"
xC"
xB"
xA"
x@"
x?"
x>"
x="
x<"
x;"
x:"
x9"
x8"
x7"
x6"
x5"
x4"
x3"
x2"
x1"
x0"
x/"
x."
x-"
x,"
x+"
x*"
x)"
x("
x'"
x&"
x%"
xd"
xc"
xb"
xa"
x`"
x_"
x^"
x]"
x\"
x["
xZ"
xY"
xX"
xW"
xV"
xU"
xT"
xS"
xR"
xQ"
xP"
xO"
xN"
xM"
xL"
xK"
xJ"
xI"
xH"
xG"
xF"
xE"
bx e"
bx .
xi!
xh!
xg!
xf!
xe!
xd!
xc!
xb!
xa!
x`!
x_!
x^!
x]!
x\!
x[!
xZ!
xY!
xX!
xW!
xV!
xU!
xT!
xS!
xR!
xQ!
xP!
xO!
xN!
xM!
xL!
xK!
xJ!
#20
0!
#25
1!
b1000 P
b1000 $
0n
1m
1M
#30
0!
#35
1!
b1100 P
b1100 $
1n
0M
0L
1K
#40
0!
#45
1!
b10000 P
b10000 $
0n
0m
1l
1M
#50
0!
#55
1!
b10100 P
b10100 $
1n
0M
1L
#60
0!
#65
1!
b11000 P
b11000 $
0n
1m
1M
#70
0!
#75
1!
b11100 P
b11100 $
1n
0M
0L
0K
1J
#80
0!
#85
1!
b100000 P
b100000 $
0n
0m
0l
1k
1M
#90
0!
#95
1!
b100100 P
b100100 $
1n
0M
1L
#100
0!
#105
1!
b101000 P
b101000 $
0n
1m
1M
#110
0!
#115
1!
b101100 P
b101100 $
1n
0M
0L
1K
#120
0!
#125
1!
b110000 P
b110000 $
0n
0m
1l
1M
#130
0!
#135
1!
b110100 P
b110100 $
1n
0M
1L
#140
0!
#145
1!
b111000 P
b111000 $
0n
1m
1M
#150
0!
#155
1!
b111100 P
b111100 $
1n
0M
0L
0K
0J
1I
#160
0!
#165
1!
b1000000 P
b1000000 $
0n
0m
0l
0k
1j
1M
#170
0!
#175
1!
b1000100 P
b1000100 $
1n
0M
1L
#180
0!
#185
1!
b1001000 P
b1001000 $
0n
1m
1M
#190
0!
#195
1!
b1001100 P
b1001100 $
1n
0M
0L
1K
#200
0!
#205
1!
b1010000 P
b1010000 $
0n
0m
1l
1M
#210
0!
#215
1!
b1010100 P
b1010100 $
1n
0M
1L
#220
0!
#225
1!
b1011000 P
b1011000 $
0n
1m
1M
#230
0!
#235
1!
b1011100 P
b1011100 $
1n
0M
0L
0K
1J
#240
0!
#245
1!
b1100000 P
b1100000 $
0n
0m
0l
1k
1M
#250
0!
#255
1!
b1100100 P
b1100100 $
1n
0M
1L
#260
0!
#265
1!
b1101000 P
b1101000 $
0n
1m
1M
#270
0!
#275
1!
b1101100 P
b1101100 $
1n
0M
0L
1K
#280
0!
#285
1!
b1110000 P
b1110000 $
0n
0m
1l
1M
#290
0!
#295
1!
b1110100 P
b1110100 $
1n
0M
1L
#300
0!
#305
1!
b1111000 P
b1111000 $
0n
1m
1M
#310
0!
#315
1!
b1111100 P
b1111100 $
1n
0M
0L
0K
0J
0I
1H
#320
0!
#325
1!
b10000000 P
b10000000 $
0n
0m
0l
0k
0j
1i
1M
#330
0!
#335
1!
b10000100 P
b10000100 $
1n
0M
1L
#340
0!
#345
1!
b10001000 P
b10001000 $
0n
1m
1M
#350
0!
#355
1!
b10001100 P
b10001100 $
1n
0M
0L
1K
#360
0!
#365
1!
b10010000 P
b10010000 $
0n
0m
1l
1M
#370
0!
#375
1!
b10010100 P
b10010100 $
1n
0M
1L
#380
0!
#385
1!
b10011000 P
b10011000 $
0n
1m
1M
#390
0!
#395
1!
b10011100 P
b10011100 $
1n
0M
0L
0K
1J
#400
0!
#405
1!
b10100000 P
b10100000 $
0n
0m
0l
1k
1M
#410
0!
#415
1!
b10100100 P
b10100100 $
1n
0M
1L
#420
0!
#425
1!
b10101000 P
b10101000 $
0n
1m
1M
#430
0!
#435
1!
b10101100 P
b10101100 $
1n
0M
0L
1K
#440
0!
#445
1!
b10110000 P
b10110000 $
0n
0m
1l
1M
#450
0!
#455
1!
b10110100 P
b10110100 $
1n
0M
1L
#460
0!
#465
1!
b10111000 P
b10111000 $
0n
1m
1M
#470
0!
#475
1!
b10111100 P
b10111100 $
1n
0M
0L
0K
0J
1I
#480
0!
#485
1!
b11000000 P
b11000000 $
0n
0m
0l
0k
1j
1M
#490
0!
#495
1!
b11000100 P
b11000100 $
1n
0M
1L
#500
0!
#505
1!
b11001000 P
b11001000 $
0n
1m
1M
#510
0!
#515
1!
b11001100 P
b11001100 $
1n
0M
0L
1K
#520
0!
#525
1!
b11010000 P
b11010000 $
0n
0m
1l
1M
#530
0!
#535
1!
b11010100 P
b11010100 $
1n
0M
1L
#540
0!
#545
1!
b11011000 P
b11011000 $
0n
1m
1M
#550
0!
#555
1!
b11011100 P
b11011100 $
1n
0M
0L
0K
1J
#560
0!
#565
1!
b11100000 P
b11100000 $
0n
0m
0l
1k
1M
#570
0!
#575
1!
b11100100 P
b11100100 $
1n
0M
1L
#580
0!
#585
1!
b11101000 P
b11101000 $
0n
1m
1M
#590
0!
#595
1!
b11101100 P
b11101100 $
1n
0M
0L
1K
#600
0!
#605
1!
b11110000 P
b11110000 $
0n
0m
1l
1M
#610
0!
#615
1!
b11110100 P
b11110100 $
1n
0M
1L
#620
0!
#625
1!
b11111000 P
b11111000 $
0n
1m
1M
#630
0!
#635
1!
b11111100 P
b11111100 $
1n
0M
0L
0K
0J
0I
0H
1G
#640
0!
#645
1!
b100000000 P
b100000000 $
0n
0m
0l
0k
0j
0i
1h
1M
#650
0!
#655
1!
b100000100 P
b100000100 $
1n
0M
1L
#660
0!
#665
1!
b100001000 P
b100001000 $
0n
1m
1M
#670
0!
#675
1!
b100001100 P
b100001100 $
1n
0M
0L
1K
#680
0!
#685
1!
b100010000 P
b100010000 $
0n
0m
1l
1M
#690
0!
#695
1!
b100010100 P
b100010100 $
1n
0M
1L
#700
0!
#705
1!
b100011000 P
b100011000 $
0n
1m
1M
#710
0!
#715
1!
b100011100 P
b100011100 $
1n
0M
0L
0K
1J
#720
0!
#725
1!
b100100000 P
b100100000 $
0n
0m
0l
1k
1M
#730
0!
#735
1!
b100100100 P
b100100100 $
1n
0M
1L
#740
0!
#745
1!
b100101000 P
b100101000 $
0n
1m
1M
#750
0!
#755
1!
b100101100 P
b100101100 $
1n
0M
0L
1K
#760
0!
#765
1!
b100110000 P
b100110000 $
0n
0m
1l
1M
#770
0!
#775
1!
b100110100 P
b100110100 $
1n
0M
1L
#780
0!
#785
1!
b100111000 P
b100111000 $
0n
1m
1M
#790
0!
#795
1!
b100111100 P
b100111100 $
1n
0M
0L
0K
0J
1I
#800
0!
#805
1!
b101000000 P
b101000000 $
0n
0m
0l
0k
1j
1M
#810
0!
#815
1!
b101000100 P
b101000100 $
1n
0M
1L
#820
0!
#825
1!
b101001000 P
b101001000 $
0n
1m
1M
#830
0!
#835
1!
b101001100 P
b101001100 $
1n
0M
0L
1K
#840
0!
#845
1!
b101010000 P
b101010000 $
0n
0m
1l
1M
#850
0!
#855
1!
b101010100 P
b101010100 $
1n
0M
1L
#860
0!
#865
1!
b101011000 P
b101011000 $
0n
1m
1M
#870
0!
#875
1!
b101011100 P
b101011100 $
1n
0M
0L
0K
1J
#880
0!
#885
1!
b101100000 P
b101100000 $
0n
0m
0l
1k
1M
#890
0!
#895
1!
b101100100 P
b101100100 $
1n
0M
1L
#900
0!
#905
1!
b101101000 P
b101101000 $
0n
1m
1M
#910
0!
#915
1!
b101101100 P
b101101100 $
1n
0M
0L
1K
#920
0!
#925
1!
b101110000 P
b101110000 $
0n
0m
1l
1M
#930
0!
#935
1!
b101110100 P
b101110100 $
1n
0M
1L
#940
0!
#945
1!
b101111000 P
b101111000 $
0n
1m
1M
#950
0!
#955
1!
b101111100 P
b101111100 $
1n
0M
0L
0K
0J
0I
1H
#960
0!
#965
1!
b110000000 P
b110000000 $
0n
0m
0l
0k
0j
1i
1M
#970
0!
#975
1!
b110000100 P
b110000100 $
1n
0M
1L
#980
0!
#985
1!
b110001000 P
b110001000 $
0n
1m
1M
#990
0!
#995
1!
b110001100 P
b110001100 $
1n
0M
0L
1K
#1000
0!
#1005
1!
b110010000 P
b110010000 $
0n
0m
1l
1M
